{
  "type": "MultiPolygon",
  "coordinates": [
    [
      [
        [
          246.91573044625545,
          154.76655019992327,
          0.0
        ],
        [
          281.33552485366727,
          160.71961460724771,
          0.0
        ],
        [
          285.04483759583945,
          139.27288175798179,
          0.0
        ],
        [
          250.62504318842767,
          133.31981735065736,
          0.0
        ],
        [
          246.91573044625545,
          154.76655019992327,
          0.0
        ]
      ]
    ],
    [
      [
        [
          246.91573044625545,
          154.76655019992327,
          214.0
        ],
        [
          281.33552485366727,
          160.71961460724771,
          214.0
        ],
        [
          285.04483759583945,
          139.27288175798179,
          214.0
        ],
        [
          250.62504318842767,
          133.31981735065736,
          214.0
        ],
        [
          246.91573044625545,
          154.76655019992327,
          214.0
        ]
      ]
    ],
    [
      [
        [
          246.91573044625545,
          154.76655019992327,
          0.0
        ],
        [
          281.33552485366727,
          160.71961460724771,
          0.0
        ],
        [
          281.33552485366727,
          160.71961460724771,
          214.0
        ],
        [
          246.91573044625545,
          154.76655019992327,
          214.0
        ],
        [
          246.91573044625545,
          154.76655019992327,
          0.0
        ]
      ]
    ],
    [
      [
        [
          281.33552485366727,
          160.71961460724771,
          0.0
        ],
        [
          285.04483759583945,
          139.27288175798179,
          0.0
        ],
        [
          285.04483759583945,
          139.27288175798179,
          214.0
        ],
        [
          281.33552485366727,
          160.71961460724771,
          214.0
        ],
        [
          281.33552485366727,
          160.71961460724771,
          0.0
        ]
      ]
    ],
    [
      [
        [
          285.04483759583945,
          139.27288175798179,
          0.0
        ],
        [
          250.62504318842767,
          133.31981735065736,
          0.0
        ],
        [
          250.62504318842767,
          133.31981735065736,
          214.0
        ],
        [
          285.04483759583945,
          139.27288175798179,
          214.0
        ],
        [
          285.04483759583945,
          139.27288175798179,
          0.0
        ]
      ]
    ],
    [
      [
        [
          250.62504318842767,
          133.31981735065736,
          0.0
        ],
        [
          246.91573044625545,
          154.76655019992327,
          0.0
        ],
        [
          246.91573044625545,
          154.76655019992327,
          214.0
        ],
        [
          250.62504318842767,
          133.31981735065736,
          214.0
        ],
        [
          250.62504318842767,
          133.31981735065736,
          0.0
        ]
      ]
    ],
    [
      [
        [
          329.18137744846763,
          189.93317551760052,
          0.0
        ],
        [
          314.07040621312365,
          233.81862255153291,
          0.0
        ],
        [
          357.95585324705604,
          248.92959378687687,
          0.0
        ],
        [
          373.06682448239997,
          205.04414675294447,
          0.0
        ],
        [
          329.18137744846763,
          189.93317551760052,
          0.0
        ]
      ]
    ],
    [
      [
        [
          329.18137744846763,
          189.93317551760052,
          219.0
        ],
        [
          314.07040621312365,
          233.81862255153291,
          219.0
        ],
        [
          357.95585324705604,
          248.92959378687687,
          219.0
        ],
        [
          373.06682448239997,
          205.04414675294447,
          219.0
        ],
        [
          329.18137744846763,
          189.93317551760052,
          219.0
        ]
      ]
    ],
    [
      [
        [
          329.18137744846763,
          189.93317551760052,
          0.0
        ],
        [
          314.07040621312365,
          233.81862255153291,
          0.0
        ],
        [
          314.07040621312365,
          233.81862255153291,
          219.0
        ],
        [
          329.18137744846763,
          189.93317551760052,
          219.0
        ],
        [
          329.18137744846763,
          189.93317551760052,
          0.0
        ]
      ]
    ],
    [
      [
        [
          314.07040621312365,
          233.81862255153291,
          0.0
        ],
        [
          357.95585324705604,
          248.92959378687687,
          0.0
        ],
        [
          357.95585324705604,
          248.92959378687687,
          219.0
        ],
        [
          314.07040621312365,
          233.81862255153291,
          219.0
        ],
        [
          314.07040621312365,
          233.81862255153291,
          0.0
        ]
      ]
    ],
    [
      [
        [
          357.95585324705604,
          248.92959378687687,
          0.0
        ],
        [
          373.06682448239997,
          205.04414675294447,
          0.0
        ],
        [
          373.06682448239997,
          205.04414675294447,
          219.0
        ],
        [
          357.95585324705604,
          248.92959378687687,
          219.0
        ],
        [
          357.95585324705604,
          248.92959378687687,
          0.0
        ]
      ]
    ],
    [
      [
        [
          373.06682448239997,
          205.04414675294447,
          0.0
        ],
        [
          329.18137744846763,
          189.93317551760052,
          0.0
        ],
        [
          329.18137744846763,
          189.93317551760052,
          219.0
        ],
        [
          373.06682448239997,
          205.04414675294447,
          219.0
        ],
        [
          373.06682448239997,
          205.04414675294447,
          0.0
        ]
      ]
    ],
    [
      [
        [
          40.161577782434655,
          397.2079973828715,
          0.0
        ],
        [
          140.16157778243465,
          397.2079973828715,
          0.0
        ],
        [
          140.16157778243465,
          378.91525825243673,
          0.0
        ],
        [
          40.161577782434655,
          378.91525825243673,
          0.0
        ],
        [
          40.161577782434655,
          397.2079973828715,
          0.0
        ]
      ]
    ],
    [
      [
        [
          40.161577782434655,
          397.2079973828715,
          105.0
        ],
        [
          140.16157778243465,
          397.2079973828715,
          105.0
        ],
        [
          140.16157778243465,
          378.91525825243673,
          105.0
        ],
        [
          40.161577782434655,
          378.91525825243673,
          105.0
        ],
        [
          40.161577782434655,
          397.2079973828715,
          105.0
        ]
      ]
    ],
    [
      [
        [
          40.161577782434655,
          397.2079973828715,
          0.0
        ],
        [
          140.16157778243465,
          397.2079973828715,
          0.0
        ],
        [
          140.16157778243465,
          397.2079973828715,
          105.0
        ],
        [
          40.161577782434655,
          397.2079973828715,
          105.0
        ],
        [
          40.161577782434655,
          397.2079973828715,
          0.0
        ]
      ]
    ],
    [
      [
        [
          140.16157778243465,
          397.2079973828715,
          0.0
        ],
        [
          140.16157778243465,
          378.91525825243673,
          0.0
        ],
        [
          140.16157778243465,
          378.91525825243673,
          105.0
        ],
        [
          140.16157778243465,
          397.2079973828715,
          105.0
        ],
        [
          140.16157778243465,
          397.2079973828715,
          0.0
        ]
      ]
    ],
    [
      [
        [
          140.16157778243465,
          378.91525825243673,
          0.0
        ],
        [
          40.161577782434655,
          378.91525825243673,
          0.0
        ],
        [
          40.161577782434655,
          378.91525825243673,
          105.0
        ],
        [
          140.16157778243465,
          378.91525825243673,
          105.0
        ],
        [
          140.16157778243465,
          378.91525825243673,
          0.0
        ]
      ]
    ],
    [
      [
        [
          40.161577782434655,
          378.91525825243673,
          0.0
        ],
        [
          40.161577782434655,
          397.2079973828715,
          0.0
        ],
        [
          40.161577782434655,
          397.2079973828715,
          105.0
        ],
        [
          40.161577782434655,
          378.91525825243673,
          105.0
        ],
        [
          40.161577782434655,
          378.91525825243673,
          0.0
        ]
      ]
    ],
    [
      [
        [
          325.82709946079871,
          106.02261555889024,
          0.0
        ],
        [
          285.98829627941336,
          143.17290053920115,
          0.0
        ],
        [
          323.13858125972428,
          183.01170372058652,
          0.0
        ],
        [
          362.97738444110962,
          145.86141874027561,
          0.0
        ],
        [
          325.82709946079871,
          106.02261555889024,
          0.0
        ]
      ]
    ],
    [
      [
        [
          325.82709946079871,
          106.02261555889024,
          141.0
        ],
        [
          285.98829627941336,
          143.17290053920115,
          141.0
        ],
        [
          323.13858125972428,
          183.01170372058652,
          141.0
        ],
        [
          362.97738444110962,
          145.86141874027561,
          141.0
        ],
        [
          325.82709946079871,
          106.02261555889024,
          141.0
        ]
      ]
    ],
    [
      [
        [
          325.82709946079871,
          106.02261555889024,
          0.0
        ],
        [
          285.98829627941336,
          143.17290053920115,
          0.0
        ],
        [
          285.98829627941336,
          143.17290053920115,
          141.0
        ],
        [
          325.82709946079871,
          106.02261555889024,
          141.0
        ],
        [
          325.82709946079871,
          106.02261555889024,
          0.0
        ]
      ]
    ],
    [
      [
        [
          285.98829627941336,
          143.17290053920115,
          0.0
        ],
        [
          323.13858125972428,
          183.01170372058652,
          0.0
        ],
        [
          323.13858125972428,
          183.01170372058652,
          141.0
        ],
        [
          285.98829627941336,
          143.17290053920115,
          141.0
        ],
        [
          285.98829627941336,
          143.17290053920115,
          0.0
        ]
      ]
    ],
    [
      [
        [
          323.13858125972428,
          183.01170372058652,
          0.0
        ],
        [
          362.97738444110962,
          145.86141874027561,
          0.0
        ],
        [
          362.97738444110962,
          145.86141874027561,
          141.0
        ],
        [
          323.13858125972428,
          183.01170372058652,
          141.0
        ],
        [
          323.13858125972428,
          183.01170372058652,
          0.0
        ]
      ]
    ],
    [
      [
        [
          362.97738444110962,
          145.86141874027561,
          0.0
        ],
        [
          325.82709946079871,
          106.02261555889024,
          0.0
        ],
        [
          325.82709946079871,
          106.02261555889024,
          141.0
        ],
        [
          362.97738444110962,
          145.86141874027561,
          141.0
        ],
        [
          362.97738444110962,
          145.86141874027561,
          0.0
        ]
      ]
    ],
    [
      [
        [
          63.749218421663258,
          272.66648648533868,
          0.0
        ],
        [
          54.863863163410805,
          372.27095657546386,
          0.0
        ],
        [
          84.8176556158661,
          374.94302628309049,
          0.0
        ],
        [
          93.703010874118561,
          275.33855619296531,
          0.0
        ],
        [
          63.749218421663258,
          272.66648648533868,
          0.0
        ]
      ]
    ],
    [
      [
        [
          63.749218421663258,
          272.66648648533868,
          239.0
        ],
        [
          54.863863163410805,
          372.27095657546386,
          239.0
        ],
        [
          84.8176556158661,
          374.94302628309049,
          239.0
        ],
        [
          93.703010874118561,
          275.33855619296531,
          239.0
        ],
        [
          63.749218421663258,
          272.66648648533868,
          239.0
        ]
      ]
    ],
    [
      [
        [
          63.749218421663258,
          272.66648648533868,
          0.0
        ],
        [
          54.863863163410805,
          372.27095657546386,
          0.0
        ],
        [
          54.863863163410805,
          372.27095657546386,
          239.0
        ],
        [
          63.749218421663258,
          272.66648648533868,
          239.0
        ],
        [
          63.749218421663258,
          272.66648648533868,
          0.0
        ]
      ]
    ],
    [
      [
        [
          54.863863163410805,
          372.27095657546386,
          0.0
        ],
        [
          84.8176556158661,
          374.94302628309049,
          0.0
        ],
        [
          84.8176556158661,
          374.94302628309049,
          239.0
        ],
        [
          54.863863163410805,
          372.27095657546386,
          239.0
        ],
        [
          54.863863163410805,
          372.27095657546386,
          0.0
        ]
      ]
    ],
    [
      [
        [
          84.8176556158661,
          374.94302628309049,
          0.0
        ],
        [
          93.703010874118561,
          275.33855619296531,
          0.0
        ],
        [
          93.703010874118561,
          275.33855619296531,
          239.0
        ],
        [
          84.8176556158661,
          374.94302628309049,
          239.0
        ],
        [
          84.8176556158661,
          374.94302628309049,
          0.0
        ]
      ]
    ],
    [
      [
        [
          93.703010874118561,
          275.33855619296531,
          0.0
        ],
        [
          63.749218421663258,
          272.66648648533868,
          0.0
        ],
        [
          63.749218421663258,
          272.66648648533868,
          239.0
        ],
        [
          93.703010874118561,
          275.33855619296531,
          239.0
        ],
        [
          93.703010874118561,
          275.33855619296531,
          0.0
        ]
      ]
    ],
    [
      [
        [
          1.0,
          210.92072860075436,
          0.0
        ],
        [
          61.706456930407974,
          210.92072860075436,
          0.0
        ],
        [
          61.706456930407974,
          150.21427167034639,
          0.0
        ],
        [
          1.0,
          150.21427167034639,
          0.0
        ],
        [
          1.0,
          210.92072860075436,
          0.0
        ]
      ]
    ],
    [
      [
        [
          1.0,
          210.92072860075436,
          176.0
        ],
        [
          61.706456930407974,
          210.92072860075436,
          176.0
        ],
        [
          61.706456930407974,
          150.21427167034639,
          176.0
        ],
        [
          1.0,
          150.21427167034639,
          176.0
        ],
        [
          1.0,
          210.92072860075436,
          176.0
        ]
      ]
    ],
    [
      [
        [
          1.0,
          210.92072860075436,
          0.0
        ],
        [
          61.706456930407974,
          210.92072860075436,
          0.0
        ],
        [
          61.706456930407974,
          210.92072860075436,
          176.0
        ],
        [
          1.0,
          210.92072860075436,
          176.0
        ],
        [
          1.0,
          210.92072860075436,
          0.0
        ]
      ]
    ],
    [
      [
        [
          61.706456930407974,
          210.92072860075436,
          0.0
        ],
        [
          61.706456930407974,
          150.21427167034639,
          0.0
        ],
        [
          61.706456930407974,
          150.21427167034639,
          176.0
        ],
        [
          61.706456930407974,
          210.92072860075436,
          176.0
        ],
        [
          61.706456930407974,
          210.92072860075436,
          0.0
        ]
      ]
    ],
    [
      [
        [
          61.706456930407974,
          150.21427167034639,
          0.0
        ],
        [
          1.0,
          150.21427167034639,
          0.0
        ],
        [
          1.0,
          150.21427167034639,
          176.0
        ],
        [
          61.706456930407974,
          150.21427167034639,
          176.0
        ],
        [
          61.706456930407974,
          150.21427167034639,
          0.0
        ]
      ]
    ],
    [
      [
        [
          1.0,
          150.21427167034639,
          0.0
        ],
        [
          1.0,
          210.92072860075436,
          0.0
        ],
        [
          1.0,
          210.92072860075436,
          176.0
        ],
        [
          1.0,
          150.21427167034639,
          176.0
        ],
        [
          1.0,
          150.21427167034639,
          0.0
        ]
      ]
    ],
    [
      [
        [
          441.95455303778112,
          341.95455303778255,
          0.0
        ],
        [
          441.95455303778112,
          399.999999999999,
          0.0
        ],
        [
          499.99999999999756,
          399.999999999999,
          0.0
        ],
        [
          499.99999999999756,
          341.95455303778255,
          0.0
        ],
        [
          441.95455303778112,
          341.95455303778255,
          0.0
        ]
      ]
    ],
    [
      [
        [
          441.95455303778112,
          341.95455303778255,
          45.0
        ],
        [
          441.95455303778112,
          399.999999999999,
          45.0
        ],
        [
          499.99999999999756,
          399.999999999999,
          45.0
        ],
        [
          499.99999999999756,
          341.95455303778255,
          45.0
        ],
        [
          441.95455303778112,
          341.95455303778255,
          45.0
        ]
      ]
    ],
    [
      [
        [
          441.95455303778112,
          341.95455303778255,
          0.0
        ],
        [
          441.95455303778112,
          399.999999999999,
          0.0
        ],
        [
          441.95455303778112,
          399.999999999999,
          45.0
        ],
        [
          441.95455303778112,
          341.95455303778255,
          45.0
        ],
        [
          441.95455303778112,
          341.95455303778255,
          0.0
        ]
      ]
    ],
    [
      [
        [
          441.95455303778112,
          399.999999999999,
          0.0
        ],
        [
          499.99999999999756,
          399.999999999999,
          0.0
        ],
        [
          499.99999999999756,
          399.999999999999,
          45.0
        ],
        [
          441.95455303778112,
          399.999999999999,
          45.0
        ],
        [
          441.95455303778112,
          399.999999999999,
          0.0
        ]
      ]
    ],
    [
      [
        [
          499.99999999999756,
          399.999999999999,
          0.0
        ],
        [
          499.99999999999756,
          341.95455303778255,
          0.0
        ],
        [
          499.99999999999756,
          341.95455303778255,
          45.0
        ],
        [
          499.99999999999756,
          399.999999999999,
          45.0
        ],
        [
          499.99999999999756,
          399.999999999999,
          0.0
        ]
      ]
    ],
    [
      [
        [
          499.99999999999756,
          341.95455303778255,
          0.0
        ],
        [
          441.95455303778112,
          341.95455303778255,
          0.0
        ],
        [
          441.95455303778112,
          341.95455303778255,
          45.0
        ],
        [
          499.99999999999756,
          341.95455303778255,
          45.0
        ],
        [
          499.99999999999756,
          341.95455303778255,
          0.0
        ]
      ]
    ],
    [
      [
        [
          155.30096497300929,
          112.5358630265018,
          0.0
        ],
        [
          129.03167179562931,
          200.5142234884139,
          0.0
        ],
        [
          153.04779010670413,
          207.68515108451743,
          0.0
        ],
        [
          179.31708328408413,
          119.70679062260531,
          0.0
        ],
        [
          155.30096497300929,
          112.5358630265018,
          0.0
        ]
      ]
    ],
    [
      [
        [
          155.30096497300929,
          112.5358630265018,
          239.0
        ],
        [
          129.03167179562931,
          200.5142234884139,
          239.0
        ],
        [
          153.04779010670413,
          207.68515108451743,
          239.0
        ],
        [
          179.31708328408413,
          119.70679062260531,
          239.0
        ],
        [
          155.30096497300929,
          112.5358630265018,
          239.0
        ]
      ]
    ],
    [
      [
        [
          155.30096497300929,
          112.5358630265018,
          0.0
        ],
        [
          129.03167179562931,
          200.5142234884139,
          0.0
        ],
        [
          129.03167179562931,
          200.5142234884139,
          239.0
        ],
        [
          155.30096497300929,
          112.5358630265018,
          239.0
        ],
        [
          155.30096497300929,
          112.5358630265018,
          0.0
        ]
      ]
    ],
    [
      [
        [
          129.03167179562931,
          200.5142234884139,
          0.0
        ],
        [
          153.04779010670413,
          207.68515108451743,
          0.0
        ],
        [
          153.04779010670413,
          207.68515108451743,
          239.0
        ],
        [
          129.03167179562931,
          200.5142234884139,
          239.0
        ],
        [
          129.03167179562931,
          200.5142234884139,
          0.0
        ]
      ]
    ],
    [
      [
        [
          153.04779010670413,
          207.68515108451743,
          0.0
        ],
        [
          179.31708328408413,
          119.70679062260531,
          0.0
        ],
        [
          179.31708328408413,
          119.70679062260531,
          239.0
        ],
        [
          153.04779010670413,
          207.68515108451743,
          239.0
        ],
        [
          153.04779010670413,
          207.68515108451743,
          0.0
        ]
      ]
    ],
    [
      [
        [
          179.31708328408413,
          119.70679062260531,
          0.0
        ],
        [
          155.30096497300929,
          112.5358630265018,
          0.0
        ],
        [
          155.30096497300929,
          112.5358630265018,
          239.0
        ],
        [
          179.31708328408413,
          119.70679062260531,
          239.0
        ],
        [
          179.31708328408413,
          119.70679062260531,
          0.0
        ]
      ]
    ],
    [
      [
        [
          253.37729600443396,
          337.90914791176164,
          0.0
        ],
        [
          253.37729600443396,
          399.99999999999989,
          0.0
        ],
        [
          315.46814809267221,
          399.99999999999989,
          0.0
        ],
        [
          315.46814809267221,
          337.90914791176164,
          0.0
        ],
        [
          253.37729600443396,
          337.90914791176164,
          0.0
        ]
      ]
    ],
    [
      [
        [
          253.37729600443396,
          337.90914791176164,
          68.0
        ],
        [
          253.37729600443396,
          399.99999999999989,
          68.0
        ],
        [
          315.46814809267221,
          399.99999999999989,
          68.0
        ],
        [
          315.46814809267221,
          337.90914791176164,
          68.0
        ],
        [
          253.37729600443396,
          337.90914791176164,
          68.0
        ]
      ]
    ],
    [
      [
        [
          253.37729600443396,
          337.90914791176164,
          0.0
        ],
        [
          253.37729600443396,
          399.99999999999989,
          0.0
        ],
        [
          253.37729600443396,
          399.99999999999989,
          68.0
        ],
        [
          253.37729600443396,
          337.90914791176164,
          68.0
        ],
        [
          253.37729600443396,
          337.90914791176164,
          0.0
        ]
      ]
    ],
    [
      [
        [
          253.37729600443396,
          399.99999999999989,
          0.0
        ],
        [
          315.46814809267221,
          399.99999999999989,
          0.0
        ],
        [
          315.46814809267221,
          399.99999999999989,
          68.0
        ],
        [
          253.37729600443396,
          399.99999999999989,
          68.0
        ],
        [
          253.37729600443396,
          399.99999999999989,
          0.0
        ]
      ]
    ],
    [
      [
        [
          315.46814809267221,
          399.99999999999989,
          0.0
        ],
        [
          315.46814809267221,
          337.90914791176164,
          0.0
        ],
        [
          315.46814809267221,
          337.90914791176164,
          68.0
        ],
        [
          315.46814809267221,
          399.99999999999989,
          68.0
        ],
        [
          315.46814809267221,
          399.99999999999989,
          0.0
        ]
      ]
    ],
    [
      [
        [
          315.46814809267221,
          337.90914791176164,
          0.0
        ],
        [
          253.37729600443396,
          337.90914791176164,
          0.0
        ],
        [
          253.37729600443396,
          337.90914791176164,
          68.0
        ],
        [
          315.46814809267221,
          337.90914791176164,
          68.0
        ],
        [
          315.46814809267221,
          337.90914791176164,
          0.0
        ]
      ]
    ],
    [
      [
        [
          93.300116334885985,
          326.7039764693634,
          0.0
        ],
        [
          89.2383304983195,
          366.4972157923674,
          0.0
        ],
        [
          188.72142880582939,
          376.65168038378357,
          0.0
        ],
        [
          192.78321464239588,
          336.85844106077963,
          0.0
        ],
        [
          93.300116334885985,
          326.7039764693634,
          0.0
        ]
      ]
    ],
    [
      [
        [
          93.300116334885985,
          326.7039764693634,
          41.0
        ],
        [
          89.2383304983195,
          366.4972157923674,
          41.0
        ],
        [
          188.72142880582939,
          376.65168038378357,
          41.0
        ],
        [
          192.78321464239588,
          336.85844106077963,
          41.0
        ],
        [
          93.300116334885985,
          326.7039764693634,
          41.0
        ]
      ]
    ],
    [
      [
        [
          93.300116334885985,
          326.7039764693634,
          0.0
        ],
        [
          89.2383304983195,
          366.4972157923674,
          0.0
        ],
        [
          89.2383304983195,
          366.4972157923674,
          41.0
        ],
        [
          93.300116334885985,
          326.7039764693634,
          41.0
        ],
        [
          93.300116334885985,
          326.7039764693634,
          0.0
        ]
      ]
    ],
    [
      [
        [
          89.2383304983195,
          366.4972157923674,
          0.0
        ],
        [
          188.72142880582939,
          376.65168038378357,
          0.0
        ],
        [
          188.72142880582939,
          376.65168038378357,
          41.0
        ],
        [
          89.2383304983195,
          366.4972157923674,
          41.0
        ],
        [
          89.2383304983195,
          366.4972157923674,
          0.0
        ]
      ]
    ],
    [
      [
        [
          188.72142880582939,
          376.65168038378357,
          0.0
        ],
        [
          192.78321464239588,
          336.85844106077963,
          0.0
        ],
        [
          192.78321464239588,
          336.85844106077963,
          41.0
        ],
        [
          188.72142880582939,
          376.65168038378357,
          41.0
        ],
        [
          188.72142880582939,
          376.65168038378357,
          0.0
        ]
      ]
    ],
    [
      [
        [
          192.78321464239588,
          336.85844106077963,
          0.0
        ],
        [
          93.300116334885985,
          326.7039764693634,
          0.0
        ],
        [
          93.300116334885985,
          326.7039764693634,
          41.0
        ],
        [
          192.78321464239588,
          336.85844106077963,
          41.0
        ],
        [
          192.78321464239588,
          336.85844106077963,
          0.0
        ]
      ]
    ],
    [
      [
        [
          220.24092215584571,
          236.26145162989198,
          0.0
        ],
        [
          189.38330646383088,
          271.75907784415307,
          0.0
        ],
        [
          224.880932678092,
          302.61669353616793,
          0.0
        ],
        [
          255.7385483701068,
          267.11906732190681,
          0.0
        ],
        [
          220.24092215584571,
          236.26145162989198,
          0.0
        ]
      ]
    ],
    [
      [
        [
          220.24092215584571,
          236.26145162989198,
          187.0
        ],
        [
          189.38330646383088,
          271.75907784415307,
          187.0
        ],
        [
          224.880932678092,
          302.61669353616793,
          187.0
        ],
        [
          255.7385483701068,
          267.11906732190681,
          187.0
        ],
        [
          220.24092215584571,
          236.26145162989198,
          187.0
        ]
      ]
    ],
    [
      [
        [
          220.24092215584571,
          236.26145162989198,
          0.0
        ],
        [
          189.38330646383088,
          271.75907784415307,
          0.0
        ],
        [
          189.38330646383088,
          271.75907784415307,
          187.0
        ],
        [
          220.24092215584571,
          236.26145162989198,
          187.0
        ],
        [
          220.24092215584571,
          236.26145162989198,
          0.0
        ]
      ]
    ],
    [
      [
        [
          189.38330646383088,
          271.75907784415307,
          0.0
        ],
        [
          224.880932678092,
          302.61669353616793,
          0.0
        ],
        [
          224.880932678092,
          302.61669353616793,
          187.0
        ],
        [
          189.38330646383088,
          271.75907784415307,
          187.0
        ],
        [
          189.38330646383088,
          271.75907784415307,
          0.0
        ]
      ]
    ],
    [
      [
        [
          224.880932678092,
          302.61669353616793,
          0.0
        ],
        [
          255.7385483701068,
          267.11906732190681,
          0.0
        ],
        [
          255.7385483701068,
          267.11906732190681,
          187.0
        ],
        [
          224.880932678092,
          302.61669353616793,
          187.0
        ],
        [
          224.880932678092,
          302.61669353616793,
          0.0
        ]
      ]
    ],
    [
      [
        [
          255.7385483701068,
          267.11906732190681,
          0.0
        ],
        [
          220.24092215584571,
          236.26145162989198,
          0.0
        ],
        [
          220.24092215584571,
          236.26145162989198,
          187.0
        ],
        [
          255.7385483701068,
          267.11906732190681,
          187.0
        ],
        [
          255.7385483701068,
          267.11906732190681,
          0.0
        ]
      ]
    ],
    [
      [
        [
          365.79118269090981,
          228.98282735528616,
          0.0
        ],
        [
          384.0636687216039,
          274.20881730908997,
          0.0
        ],
        [
          429.28965867540774,
          255.9363312783959,
          0.0
        ],
        [
          411.01717264471364,
          210.71034132459207,
          0.0
        ],
        [
          365.79118269090981,
          228.98282735528616,
          0.0
        ]
      ]
    ],
    [
      [
        [
          365.79118269090981,
          228.98282735528616,
          158.0
        ],
        [
          384.0636687216039,
          274.20881730908997,
          158.0
        ],
        [
          429.28965867540774,
          255.9363312783959,
          158.0
        ],
        [
          411.01717264471364,
          210.71034132459207,
          158.0
        ],
        [
          365.79118269090981,
          228.98282735528616,
          158.0
        ]
      ]
    ],
    [
      [
        [
          365.79118269090981,
          228.98282735528616,
          0.0
        ],
        [
          384.0636687216039,
          274.20881730908997,
          0.0
        ],
        [
          384.0636687216039,
          274.20881730908997,
          158.0
        ],
        [
          365.79118269090981,
          228.98282735528616,
          158.0
        ],
        [
          365.79118269090981,
          228.98282735528616,
          0.0
        ]
      ]
    ],
    [
      [
        [
          384.0636687216039,
          274.20881730908997,
          0.0
        ],
        [
          429.28965867540774,
          255.9363312783959,
          0.0
        ],
        [
          429.28965867540774,
          255.9363312783959,
          158.0
        ],
        [
          384.0636687216039,
          274.20881730908997,
          158.0
        ],
        [
          384.0636687216039,
          274.20881730908997,
          0.0
        ]
      ]
    ],
    [
      [
        [
          429.28965867540774,
          255.9363312783959,
          0.0
        ],
        [
          411.01717264471364,
          210.71034132459207,
          0.0
        ],
        [
          411.01717264471364,
          210.71034132459207,
          158.0
        ],
        [
          429.28965867540774,
          255.9363312783959,
          158.0
        ],
        [
          429.28965867540774,
          255.9363312783959,
          0.0
        ]
      ]
    ],
    [
      [
        [
          411.01717264471364,
          210.71034132459207,
          0.0
        ],
        [
          365.79118269090981,
          228.98282735528616,
          0.0
        ],
        [
          365.79118269090981,
          228.98282735528616,
          158.0
        ],
        [
          411.01717264471364,
          210.71034132459207,
          158.0
        ],
        [
          411.01717264471364,
          210.71034132459207,
          0.0
        ]
      ]
    ],
    [
      [
        [
          138.96277497070605,
          272.25313903060311,
          0.0
        ],
        [
          122.92162544017461,
          300.03722502929321,
          0.0
        ],
        [
          150.70571143886471,
          316.07837455982462,
          0.0
        ],
        [
          166.74686096939615,
          288.29428856113452,
          0.0
        ],
        [
          138.96277497070605,
          272.25313903060311,
          0.0
        ]
      ]
    ],
    [
      [
        [
          138.96277497070605,
          272.25313903060311,
          85.0
        ],
        [
          122.92162544017461,
          300.03722502929321,
          85.0
        ],
        [
          150.70571143886471,
          316.07837455982462,
          85.0
        ],
        [
          166.74686096939615,
          288.29428856113452,
          85.0
        ],
        [
          138.96277497070605,
          272.25313903060311,
          85.0
        ]
      ]
    ],
    [
      [
        [
          138.96277497070605,
          272.25313903060311,
          0.0
        ],
        [
          122.92162544017461,
          300.03722502929321,
          0.0
        ],
        [
          122.92162544017461,
          300.03722502929321,
          85.0
        ],
        [
          138.96277497070605,
          272.25313903060311,
          85.0
        ],
        [
          138.96277497070605,
          272.25313903060311,
          0.0
        ]
      ]
    ],
    [
      [
        [
          122.92162544017461,
          300.03722502929321,
          0.0
        ],
        [
          150.70571143886471,
          316.07837455982462,
          0.0
        ],
        [
          150.70571143886471,
          316.07837455982462,
          85.0
        ],
        [
          122.92162544017461,
          300.03722502929321,
          85.0
        ],
        [
          122.92162544017461,
          300.03722502929321,
          0.0
        ]
      ]
    ],
    [
      [
        [
          150.70571143886471,
          316.07837455982462,
          0.0
        ],
        [
          166.74686096939615,
          288.29428856113452,
          0.0
        ],
        [
          166.74686096939615,
          288.29428856113452,
          85.0
        ],
        [
          150.70571143886471,
          316.07837455982462,
          85.0
        ],
        [
          150.70571143886471,
          316.07837455982462,
          0.0
        ]
      ]
    ],
    [
      [
        [
          166.74686096939615,
          288.29428856113452,
          0.0
        ],
        [
          138.96277497070605,
          272.25313903060311,
          0.0
        ],
        [
          138.96277497070605,
          272.25313903060311,
          85.0
        ],
        [
          166.74686096939615,
          288.29428856113452,
          85.0
        ],
        [
          166.74686096939615,
          288.29428856113452,
          0.0
        ]
      ]
    ],
    [
      [
        [
          399.99999999999932,
          12.901861797854483,
          0.0
        ],
        [
          399.99999999999932,
          28.554600928289265,
          0.0
        ],
        [
          499.99999999999932,
          28.554600928289258,
          0.0
        ],
        [
          499.99999999999932,
          12.901861797854476,
          0.0
        ],
        [
          399.99999999999932,
          12.901861797854483,
          0.0
        ]
      ]
    ],
    [
      [
        [
          399.99999999999932,
          12.901861797854483,
          230.0
        ],
        [
          399.99999999999932,
          28.554600928289265,
          230.0
        ],
        [
          499.99999999999932,
          28.554600928289258,
          230.0
        ],
        [
          499.99999999999932,
          12.901861797854476,
          230.0
        ],
        [
          399.99999999999932,
          12.901861797854483,
          230.0
        ]
      ]
    ],
    [
      [
        [
          399.99999999999932,
          12.901861797854483,
          0.0
        ],
        [
          399.99999999999932,
          28.554600928289265,
          0.0
        ],
        [
          399.99999999999932,
          28.554600928289265,
          230.0
        ],
        [
          399.99999999999932,
          12.901861797854483,
          230.0
        ],
        [
          399.99999999999932,
          12.901861797854483,
          0.0
        ]
      ]
    ],
    [
      [
        [
          399.99999999999932,
          28.554600928289265,
          0.0
        ],
        [
          499.99999999999932,
          28.554600928289258,
          0.0
        ],
        [
          499.99999999999932,
          28.554600928289258,
          230.0
        ],
        [
          399.99999999999932,
          28.554600928289265,
          230.0
        ],
        [
          399.99999999999932,
          28.554600928289265,
          0.0
        ]
      ]
    ],
    [
      [
        [
          499.99999999999932,
          28.554600928289258,
          0.0
        ],
        [
          499.99999999999932,
          12.901861797854476,
          0.0
        ],
        [
          499.99999999999932,
          12.901861797854476,
          230.0
        ],
        [
          499.99999999999932,
          28.554600928289258,
          230.0
        ],
        [
          499.99999999999932,
          28.554600928289258,
          0.0
        ]
      ]
    ],
    [
      [
        [
          499.99999999999932,
          12.901861797854476,
          0.0
        ],
        [
          399.99999999999932,
          12.901861797854483,
          0.0
        ],
        [
          399.99999999999932,
          12.901861797854483,
          230.0
        ],
        [
          499.99999999999932,
          12.901861797854476,
          230.0
        ],
        [
          499.99999999999932,
          12.901861797854476,
          0.0
        ]
      ]
    ],
    [
      [
        [
          246.61187771383968,
          158.79023587462834,
          0.0
        ],
        [
          237.6325136996274,
          201.96019308961067,
          0.0
        ],
        [
          296.41162134830989,
          214.18626506322187,
          0.0
        ],
        [
          305.3909853625222,
          171.01630784823954,
          0.0
        ],
        [
          246.61187771383968,
          158.79023587462834,
          0.0
        ]
      ]
    ],
    [
      [
        [
          246.61187771383968,
          158.79023587462834,
          239.0
        ],
        [
          237.6325136996274,
          201.96019308961067,
          239.0
        ],
        [
          296.41162134830989,
          214.18626506322187,
          239.0
        ],
        [
          305.3909853625222,
          171.01630784823954,
          239.0
        ],
        [
          246.61187771383968,
          158.79023587462834,
          239.0
        ]
      ]
    ],
    [
      [
        [
          246.61187771383968,
          158.79023587462834,
          0.0
        ],
        [
          237.6325136996274,
          201.96019308961067,
          0.0
        ],
        [
          237.6325136996274,
          201.96019308961067,
          239.0
        ],
        [
          246.61187771383968,
          158.79023587462834,
          239.0
        ],
        [
          246.61187771383968,
          158.79023587462834,
          0.0
        ]
      ]
    ],
    [
      [
        [
          237.6325136996274,
          201.96019308961067,
          0.0
        ],
        [
          296.41162134830989,
          214.18626506322187,
          0.0
        ],
        [
          296.41162134830989,
          214.18626506322187,
          239.0
        ],
        [
          237.6325136996274,
          201.96019308961067,
          239.0
        ],
        [
          237.6325136996274,
          201.96019308961067,
          0.0
        ]
      ]
    ],
    [
      [
        [
          296.41162134830989,
          214.18626506322187,
          0.0
        ],
        [
          305.3909853625222,
          171.01630784823954,
          0.0
        ],
        [
          305.3909853625222,
          171.01630784823954,
          239.0
        ],
        [
          296.41162134830989,
          214.18626506322187,
          239.0
        ],
        [
          296.41162134830989,
          214.18626506322187,
          0.0
        ]
      ]
    ],
    [
      [
        [
          305.3909853625222,
          171.01630784823954,
          0.0
        ],
        [
          246.61187771383968,
          158.79023587462834,
          0.0
        ],
        [
          246.61187771383968,
          158.79023587462834,
          239.0
        ],
        [
          305.3909853625222,
          171.01630784823954,
          239.0
        ],
        [
          305.3909853625222,
          171.01630784823954,
          0.0
        ]
      ]
    ],
    [
      [
        [
          92.56207916065685,
          168.94522329624169,
          0.0
        ],
        [
          114.1766995881885,
          180.43792083934312,
          0.0
        ],
        [
          125.66939713128991,
          158.82330041181152,
          0.0
        ],
        [
          104.05477670375828,
          147.33060286871006,
          0.0
        ],
        [
          92.56207916065685,
          168.94522329624169,
          0.0
        ]
      ]
    ],
    [
      [
        [
          92.56207916065685,
          168.94522329624169,
          184.0
        ],
        [
          114.1766995881885,
          180.43792083934312,
          184.0
        ],
        [
          125.66939713128991,
          158.82330041181152,
          184.0
        ],
        [
          104.05477670375828,
          147.33060286871006,
          184.0
        ],
        [
          92.56207916065685,
          168.94522329624169,
          184.0
        ]
      ]
    ],
    [
      [
        [
          92.56207916065685,
          168.94522329624169,
          0.0
        ],
        [
          114.1766995881885,
          180.43792083934312,
          0.0
        ],
        [
          114.1766995881885,
          180.43792083934312,
          184.0
        ],
        [
          92.56207916065685,
          168.94522329624169,
          184.0
        ],
        [
          92.56207916065685,
          168.94522329624169,
          0.0
        ]
      ]
    ],
    [
      [
        [
          114.1766995881885,
          180.43792083934312,
          0.0
        ],
        [
          125.66939713128991,
          158.82330041181152,
          0.0
        ],
        [
          125.66939713128991,
          158.82330041181152,
          184.0
        ],
        [
          114.1766995881885,
          180.43792083934312,
          184.0
        ],
        [
          114.1766995881885,
          180.43792083934312,
          0.0
        ]
      ]
    ],
    [
      [
        [
          125.66939713128991,
          158.82330041181152,
          0.0
        ],
        [
          104.05477670375828,
          147.33060286871006,
          0.0
        ],
        [
          104.05477670375828,
          147.33060286871006,
          184.0
        ],
        [
          125.66939713128991,
          158.82330041181152,
          184.0
        ],
        [
          125.66939713128991,
          158.82330041181152,
          0.0
        ]
      ]
    ],
    [
      [
        [
          104.05477670375828,
          147.33060286871006,
          0.0
        ],
        [
          92.56207916065685,
          168.94522329624169,
          0.0
        ],
        [
          92.56207916065685,
          168.94522329624169,
          184.0
        ],
        [
          104.05477670375828,
          147.33060286871006,
          184.0
        ],
        [
          104.05477670375828,
          147.33060286871006,
          0.0
        ]
      ]
    ],
    [
      [
        [
          309.54661755263436,
          329.57699977374784,
          0.0
        ],
        [
          353.42300022625204,
          373.45338244736558,
          0.0
        ],
        [
          397.29938289986978,
          329.57699977374784,
          0.0
        ],
        [
          353.42300022625204,
          285.7006171001301,
          0.0
        ],
        [
          309.54661755263436,
          329.57699977374784,
          0.0
        ]
      ]
    ],
    [
      [
        [
          309.54661755263436,
          329.57699977374784,
          95.0
        ],
        [
          353.42300022625204,
          373.45338244736558,
          95.0
        ],
        [
          397.29938289986978,
          329.57699977374784,
          95.0
        ],
        [
          353.42300022625204,
          285.7006171001301,
          95.0
        ],
        [
          309.54661755263436,
          329.57699977374784,
          95.0
        ]
      ]
    ],
    [
      [
        [
          309.54661755263436,
          329.57699977374784,
          0.0
        ],
        [
          353.42300022625204,
          373.45338244736558,
          0.0
        ],
        [
          353.42300022625204,
          373.45338244736558,
          95.0
        ],
        [
          309.54661755263436,
          329.57699977374784,
          95.0
        ],
        [
          309.54661755263436,
          329.57699977374784,
          0.0
        ]
      ]
    ],
    [
      [
        [
          353.42300022625204,
          373.45338244736558,
          0.0
        ],
        [
          397.29938289986978,
          329.57699977374784,
          0.0
        ],
        [
          397.29938289986978,
          329.57699977374784,
          95.0
        ],
        [
          353.42300022625204,
          373.45338244736558,
          95.0
        ],
        [
          353.42300022625204,
          373.45338244736558,
          0.0
        ]
      ]
    ],
    [
      [
        [
          397.29938289986978,
          329.57699977374784,
          0.0
        ],
        [
          353.42300022625204,
          285.7006171001301,
          0.0
        ],
        [
          353.42300022625204,
          285.7006171001301,
          95.0
        ],
        [
          397.29938289986978,
          329.57699977374784,
          95.0
        ],
        [
          397.29938289986978,
          329.57699977374784,
          0.0
        ]
      ]
    ],
    [
      [
        [
          353.42300022625204,
          285.7006171001301,
          0.0
        ],
        [
          309.54661755263436,
          329.57699977374784,
          0.0
        ],
        [
          309.54661755263436,
          329.57699977374784,
          95.0
        ],
        [
          353.42300022625204,
          285.7006171001301,
          95.0
        ],
        [
          353.42300022625204,
          285.7006171001301,
          0.0
        ]
      ]
    ],
    [
      [
        [
          203.54219468896841,
          65.4384364043842,
          0.0
        ],
        [
          209.34760267875964,
          165.26978037045564,
          0.0
        ],
        [
          239.63916694879174,
          163.50826056865583,
          0.0
        ],
        [
          233.83375895900051,
          63.676916602584427,
          0.0
        ],
        [
          203.54219468896841,
          65.4384364043842,
          0.0
        ]
      ]
    ],
    [
      [
        [
          203.54219468896841,
          65.4384364043842,
          75.0
        ],
        [
          209.34760267875964,
          165.26978037045564,
          75.0
        ],
        [
          239.63916694879174,
          163.50826056865583,
          75.0
        ],
        [
          233.83375895900051,
          63.676916602584427,
          75.0
        ],
        [
          203.54219468896841,
          65.4384364043842,
          75.0
        ]
      ]
    ],
    [
      [
        [
          203.54219468896841,
          65.4384364043842,
          0.0
        ],
        [
          209.34760267875964,
          165.26978037045564,
          0.0
        ],
        [
          209.34760267875964,
          165.26978037045564,
          75.0
        ],
        [
          203.54219468896841,
          65.4384364043842,
          75.0
        ],
        [
          203.54219468896841,
          65.4384364043842,
          0.0
        ]
      ]
    ],
    [
      [
        [
          209.34760267875964,
          165.26978037045564,
          0.0
        ],
        [
          239.63916694879174,
          163.50826056865583,
          0.0
        ],
        [
          239.63916694879174,
          163.50826056865583,
          75.0
        ],
        [
          209.34760267875964,
          165.26978037045564,
          75.0
        ],
        [
          209.34760267875964,
          165.26978037045564,
          0.0
        ]
      ]
    ],
    [
      [
        [
          239.63916694879174,
          163.50826056865583,
          0.0
        ],
        [
          233.83375895900051,
          63.676916602584427,
          0.0
        ],
        [
          233.83375895900051,
          63.676916602584427,
          75.0
        ],
        [
          239.63916694879174,
          163.50826056865583,
          75.0
        ],
        [
          239.63916694879174,
          163.50826056865583,
          0.0
        ]
      ]
    ],
    [
      [
        [
          233.83375895900051,
          63.676916602584427,
          0.0
        ],
        [
          203.54219468896841,
          65.4384364043842,
          0.0
        ],
        [
          203.54219468896841,
          65.4384364043842,
          75.0
        ],
        [
          233.83375895900051,
          63.676916602584427,
          75.0
        ],
        [
          233.83375895900051,
          63.676916602584427,
          0.0
        ]
      ]
    ],
    [
      [
        [
          166.17663230907863,
          211.5694511889686,
          0.0
        ],
        [
          191.23430773132336,
          215.15381511006774,
          0.0
        ],
        [
          205.39462401566212,
          116.16146468475716,
          0.0
        ],
        [
          180.33694859341739,
          112.57710076365802,
          0.0
        ],
        [
          166.17663230907863,
          211.5694511889686,
          0.0
        ]
      ]
    ],
    [
      [
        [
          166.17663230907863,
          211.5694511889686,
          208.0
        ],
        [
          191.23430773132336,
          215.15381511006774,
          208.0
        ],
        [
          205.39462401566212,
          116.16146468475716,
          208.0
        ],
        [
          180.33694859341739,
          112.57710076365802,
          208.0
        ],
        [
          166.17663230907863,
          211.5694511889686,
          208.0
        ]
      ]
    ],
    [
      [
        [
          166.17663230907863,
          211.5694511889686,
          0.0
        ],
        [
          191.23430773132336,
          215.15381511006774,
          0.0
        ],
        [
          191.23430773132336,
          215.15381511006774,
          208.0
        ],
        [
          166.17663230907863,
          211.5694511889686,
          208.0
        ],
        [
          166.17663230907863,
          211.5694511889686,
          0.0
        ]
      ]
    ],
    [
      [
        [
          191.23430773132336,
          215.15381511006774,
          0.0
        ],
        [
          205.39462401566212,
          116.16146468475716,
          0.0
        ],
        [
          205.39462401566212,
          116.16146468475716,
          208.0
        ],
        [
          191.23430773132336,
          215.15381511006774,
          208.0
        ],
        [
          191.23430773132336,
          215.15381511006774,
          0.0
        ]
      ]
    ],
    [
      [
        [
          205.39462401566212,
          116.16146468475716,
          0.0
        ],
        [
          180.33694859341739,
          112.57710076365802,
          0.0
        ],
        [
          180.33694859341739,
          112.57710076365802,
          208.0
        ],
        [
          205.39462401566212,
          116.16146468475716,
          208.0
        ],
        [
          205.39462401566212,
          116.16146468475716,
          0.0
        ]
      ]
    ],
    [
      [
        [
          180.33694859341739,
          112.57710076365802,
          0.0
        ],
        [
          166.17663230907863,
          211.5694511889686,
          0.0
        ],
        [
          166.17663230907863,
          211.5694511889686,
          208.0
        ],
        [
          180.33694859341739,
          112.57710076365802,
          208.0
        ],
        [
          180.33694859341739,
          112.57710076365802,
          0.0
        ]
      ]
    ],
    [
      [
        [
          402.78100016635426,
          28.554600928289585,
          0.0
        ],
        [
          402.78100016635426,
          69.69882177858149,
          0.0
        ],
        [
          499.99999999999966,
          69.698821778581475,
          0.0
        ],
        [
          499.99999999999966,
          28.554600928289577,
          0.0
        ],
        [
          402.78100016635426,
          28.554600928289585,
          0.0
        ]
      ]
    ],
    [
      [
        [
          402.78100016635426,
          28.554600928289585,
          132.0
        ],
        [
          402.78100016635426,
          69.69882177858149,
          132.0
        ],
        [
          499.99999999999966,
          69.698821778581475,
          132.0
        ],
        [
          499.99999999999966,
          28.554600928289577,
          132.0
        ],
        [
          402.78100016635426,
          28.554600928289585,
          132.0
        ]
      ]
    ],
    [
      [
        [
          402.78100016635426,
          28.554600928289585,
          0.0
        ],
        [
          402.78100016635426,
          69.69882177858149,
          0.0
        ],
        [
          402.78100016635426,
          69.69882177858149,
          132.0
        ],
        [
          402.78100016635426,
          28.554600928289585,
          132.0
        ],
        [
          402.78100016635426,
          28.554600928289585,
          0.0
        ]
      ]
    ],
    [
      [
        [
          402.78100016635426,
          69.69882177858149,
          0.0
        ],
        [
          499.99999999999966,
          69.698821778581475,
          0.0
        ],
        [
          499.99999999999966,
          69.698821778581475,
          132.0
        ],
        [
          402.78100016635426,
          69.69882177858149,
          132.0
        ],
        [
          402.78100016635426,
          69.69882177858149,
          0.0
        ]
      ]
    ],
    [
      [
        [
          499.99999999999966,
          69.698821778581475,
          0.0
        ],
        [
          499.99999999999966,
          28.554600928289577,
          0.0
        ],
        [
          499.99999999999966,
          28.554600928289577,
          132.0
        ],
        [
          499.99999999999966,
          69.698821778581475,
          132.0
        ],
        [
          499.99999999999966,
          69.698821778581475,
          0.0
        ]
      ]
    ],
    [
      [
        [
          499.99999999999966,
          28.554600928289577,
          0.0
        ],
        [
          402.78100016635426,
          28.554600928289585,
          0.0
        ],
        [
          402.78100016635426,
          28.554600928289585,
          132.0
        ],
        [
          499.99999999999966,
          28.554600928289577,
          132.0
        ],
        [
          499.99999999999966,
          28.554600928289577,
          0.0
        ]
      ]
    ],
    [
      [
        [
          36.6316324856806,
          69.269470950494323,
          0.0
        ],
        [
          17.445714668939573,
          85.368367514319331,
          0.0
        ],
        [
          33.544611232764581,
          104.55428533106036,
          0.0
        ],
        [
          52.730529049505606,
          88.455388767235348,
          0.0
        ],
        [
          36.6316324856806,
          69.269470950494323,
          0.0
        ]
      ]
    ],
    [
      [
        [
          36.6316324856806,
          69.269470950494323,
          39.0
        ],
        [
          17.445714668939573,
          85.368367514319331,
          39.0
        ],
        [
          33.544611232764581,
          104.55428533106036,
          39.0
        ],
        [
          52.730529049505606,
          88.455388767235348,
          39.0
        ],
        [
          36.6316324856806,
          69.269470950494323,
          39.0
        ]
      ]
    ],
    [
      [
        [
          36.6316324856806,
          69.269470950494323,
          0.0
        ],
        [
          17.445714668939573,
          85.368367514319331,
          0.0
        ],
        [
          17.445714668939573,
          85.368367514319331,
          39.0
        ],
        [
          36.6316324856806,
          69.269470950494323,
          39.0
        ],
        [
          36.6316324856806,
          69.269470950494323,
          0.0
        ]
      ]
    ],
    [
      [
        [
          17.445714668939573,
          85.368367514319331,
          0.0
        ],
        [
          33.544611232764581,
          104.55428533106036,
          0.0
        ],
        [
          33.544611232764581,
          104.55428533106036,
          39.0
        ],
        [
          17.445714668939573,
          85.368367514319331,
          39.0
        ],
        [
          17.445714668939573,
          85.368367514319331,
          0.0
        ]
      ]
    ],
    [
      [
        [
          33.544611232764581,
          104.55428533106036,
          0.0
        ],
        [
          52.730529049505606,
          88.455388767235348,
          0.0
        ],
        [
          52.730529049505606,
          88.455388767235348,
          39.0
        ],
        [
          33.544611232764581,
          104.55428533106036,
          39.0
        ],
        [
          33.544611232764581,
          104.55428533106036,
          0.0
        ]
      ]
    ],
    [
      [
        [
          52.730529049505606,
          88.455388767235348,
          0.0
        ],
        [
          36.6316324856806,
          69.269470950494323,
          0.0
        ],
        [
          36.6316324856806,
          69.269470950494323,
          39.0
        ],
        [
          52.730529049505606,
          88.455388767235348,
          39.0
        ],
        [
          52.730529049505606,
          88.455388767235348,
          0.0
        ]
      ]
    ],
    [
      [
        [
          29.555337786547717,
          2.8807340440551386,
          0.0
        ],
        [
          24.556102688993882,
          34.44466221345229,
          0.0
        ],
        [
          56.120030858391033,
          39.443897311006126,
          0.0
        ],
        [
          61.119265955944869,
          7.8799691416089761,
          0.0
        ],
        [
          29.555337786547717,
          2.8807340440551386,
          0.0
        ]
      ]
    ],
    [
      [
        [
          29.555337786547717,
          2.8807340440551386,
          167.0
        ],
        [
          24.556102688993882,
          34.44466221345229,
          167.0
        ],
        [
          56.120030858391033,
          39.443897311006126,
          167.0
        ],
        [
          61.119265955944869,
          7.8799691416089761,
          167.0
        ],
        [
          29.555337786547717,
          2.8807340440551386,
          167.0
        ]
      ]
    ],
    [
      [
        [
          29.555337786547717,
          2.8807340440551386,
          0.0
        ],
        [
          24.556102688993882,
          34.44466221345229,
          0.0
        ],
        [
          24.556102688993882,
          34.44466221345229,
          167.0
        ],
        [
          29.555337786547717,
          2.8807340440551386,
          167.0
        ],
        [
          29.555337786547717,
          2.8807340440551386,
          0.0
        ]
      ]
    ],
    [
      [
        [
          24.556102688993882,
          34.44466221345229,
          0.0
        ],
        [
          56.120030858391033,
          39.443897311006126,
          0.0
        ],
        [
          56.120030858391033,
          39.443897311006126,
          167.0
        ],
        [
          24.556102688993882,
          34.44466221345229,
          167.0
        ],
        [
          24.556102688993882,
          34.44466221345229,
          0.0
        ]
      ]
    ],
    [
      [
        [
          56.120030858391033,
          39.443897311006126,
          0.0
        ],
        [
          61.119265955944869,
          7.8799691416089761,
          0.0
        ],
        [
          61.119265955944869,
          7.8799691416089761,
          167.0
        ],
        [
          56.120030858391033,
          39.443897311006126,
          167.0
        ],
        [
          56.120030858391033,
          39.443897311006126,
          0.0
        ]
      ]
    ],
    [
      [
        [
          61.119265955944869,
          7.8799691416089761,
          0.0
        ],
        [
          29.555337786547717,
          2.8807340440551386,
          0.0
        ],
        [
          29.555337786547717,
          2.8807340440551386,
          167.0
        ],
        [
          61.119265955944869,
          7.8799691416089761,
          167.0
        ],
        [
          61.119265955944869,
          7.8799691416089761,
          0.0
        ]
      ]
    ],
    [
      [
        [
          436.6757448251347,
          130.175607062285,
          0.0
        ],
        [
          497.75938928456884,
          126.30579089386657,
          0.0
        ],
        [
          494.22210985658887,
          70.471118255991371,
          0.0
        ],
        [
          433.13846539715473,
          74.340934424409809,
          0.0
        ],
        [
          436.6757448251347,
          130.175607062285,
          0.0
        ]
      ]
    ],
    [
      [
        [
          436.6757448251347,
          130.175607062285,
          128.0
        ],
        [
          497.75938928456884,
          126.30579089386657,
          128.0
        ],
        [
          494.22210985658887,
          70.471118255991371,
          128.0
        ],
        [
          433.13846539715473,
          74.340934424409809,
          128.0
        ],
        [
          436.6757448251347,
          130.175607062285,
          128.0
        ]
      ]
    ],
    [
      [
        [
          436.6757448251347,
          130.175607062285,
          0.0
        ],
        [
          497.75938928456884,
          126.30579089386657,
          0.0
        ],
        [
          497.75938928456884,
          126.30579089386657,
          128.0
        ],
        [
          436.6757448251347,
          130.175607062285,
          128.0
        ],
        [
          436.6757448251347,
          130.175607062285,
          0.0
        ]
      ]
    ],
    [
      [
        [
          497.75938928456884,
          126.30579089386657,
          0.0
        ],
        [
          494.22210985658887,
          70.471118255991371,
          0.0
        ],
        [
          494.22210985658887,
          70.471118255991371,
          128.0
        ],
        [
          497.75938928456884,
          126.30579089386657,
          128.0
        ],
        [
          497.75938928456884,
          126.30579089386657,
          0.0
        ]
      ]
    ],
    [
      [
        [
          494.22210985658887,
          70.471118255991371,
          0.0
        ],
        [
          433.13846539715473,
          74.340934424409809,
          0.0
        ],
        [
          433.13846539715473,
          74.340934424409809,
          128.0
        ],
        [
          494.22210985658887,
          70.471118255991371,
          128.0
        ],
        [
          494.22210985658887,
          70.471118255991371,
          0.0
        ]
      ]
    ],
    [
      [
        [
          433.13846539715473,
          74.340934424409809,
          0.0
        ],
        [
          436.6757448251347,
          130.175607062285,
          0.0
        ],
        [
          436.6757448251347,
          130.175607062285,
          128.0
        ],
        [
          433.13846539715473,
          74.340934424409809,
          128.0
        ],
        [
          433.13846539715473,
          74.340934424409809,
          0.0
        ]
      ]
    ],
    [
      [
        [
          139.91113883764015,
          99.105257238499135,
          0.0
        ],
        [
          162.50327934758917,
          103.08886116235985,
          0.0
        ],
        [
          166.48688327144987,
          80.496720652410843,
          0.0
        ],
        [
          143.89474276150085,
          76.513116728550131,
          0.0
        ],
        [
          139.91113883764015,
          99.105257238499135,
          0.0
        ]
      ]
    ],
    [
      [
        [
          139.91113883764015,
          99.105257238499135,
          170.0
        ],
        [
          162.50327934758917,
          103.08886116235985,
          170.0
        ],
        [
          166.48688327144987,
          80.496720652410843,
          170.0
        ],
        [
          143.89474276150085,
          76.513116728550131,
          170.0
        ],
        [
          139.91113883764015,
          99.105257238499135,
          170.0
        ]
      ]
    ],
    [
      [
        [
          139.91113883764015,
          99.105257238499135,
          0.0
        ],
        [
          162.50327934758917,
          103.08886116235985,
          0.0
        ],
        [
          162.50327934758917,
          103.08886116235985,
          170.0
        ],
        [
          139.91113883764015,
          99.105257238499135,
          170.0
        ],
        [
          139.91113883764015,
          99.105257238499135,
          0.0
        ]
      ]
    ],
    [
      [
        [
          162.50327934758917,
          103.08886116235985,
          0.0
        ],
        [
          166.48688327144987,
          80.496720652410843,
          0.0
        ],
        [
          166.48688327144987,
          80.496720652410843,
          170.0
        ],
        [
          162.50327934758917,
          103.08886116235985,
          170.0
        ],
        [
          162.50327934758917,
          103.08886116235985,
          0.0
        ]
      ]
    ],
    [
      [
        [
          166.48688327144987,
          80.496720652410843,
          0.0
        ],
        [
          143.89474276150085,
          76.513116728550131,
          0.0
        ],
        [
          143.89474276150085,
          76.513116728550131,
          170.0
        ],
        [
          166.48688327144987,
          80.496720652410843,
          170.0
        ],
        [
          166.48688327144987,
          80.496720652410843,
          0.0
        ]
      ]
    ],
    [
      [
        [
          143.89474276150085,
          76.513116728550131,
          0.0
        ],
        [
          139.91113883764015,
          99.105257238499135,
          0.0
        ],
        [
          139.91113883764015,
          99.105257238499135,
          170.0
        ],
        [
          143.89474276150085,
          76.513116728550131,
          170.0
        ],
        [
          143.89474276150085,
          76.513116728550131,
          0.0
        ]
      ]
    ],
    [
      [
        [
          274.79874325335186,
          1.0000000000000036,
          0.0
        ],
        [
          226.28818859724146,
          1.0000000000000107,
          0.0
        ],
        [
          226.28818859724146,
          49.510554656110443,
          0.0
        ],
        [
          274.79874325335192,
          49.510554656110429,
          0.0
        ],
        [
          274.79874325335186,
          1.0000000000000036,
          0.0
        ]
      ]
    ],
    [
      [
        [
          274.79874325335186,
          1.0000000000000036,
          179.0
        ],
        [
          226.28818859724146,
          1.0000000000000107,
          179.0
        ],
        [
          226.28818859724146,
          49.510554656110443,
          179.0
        ],
        [
          274.79874325335192,
          49.510554656110429,
          179.0
        ],
        [
          274.79874325335186,
          1.0000000000000036,
          179.0
        ]
      ]
    ],
    [
      [
        [
          274.79874325335186,
          1.0000000000000036,
          0.0
        ],
        [
          226.28818859724146,
          1.0000000000000107,
          0.0
        ],
        [
          226.28818859724146,
          1.0000000000000107,
          179.0
        ],
        [
          274.79874325335186,
          1.0000000000000036,
          179.0
        ],
        [
          274.79874325335186,
          1.0000000000000036,
          0.0
        ]
      ]
    ],
    [
      [
        [
          226.28818859724146,
          1.0000000000000107,
          0.0
        ],
        [
          226.28818859724146,
          49.510554656110443,
          0.0
        ],
        [
          226.28818859724146,
          49.510554656110443,
          179.0
        ],
        [
          226.28818859724146,
          1.0000000000000107,
          179.0
        ],
        [
          226.28818859724146,
          1.0000000000000107,
          0.0
        ]
      ]
    ],
    [
      [
        [
          226.28818859724146,
          49.510554656110443,
          0.0
        ],
        [
          274.79874325335192,
          49.510554656110429,
          0.0
        ],
        [
          274.79874325335192,
          49.510554656110429,
          179.0
        ],
        [
          226.28818859724146,
          49.510554656110443,
          179.0
        ],
        [
          226.28818859724146,
          49.510554656110443,
          0.0
        ]
      ]
    ],
    [
      [
        [
          274.79874325335192,
          49.510554656110429,
          0.0
        ],
        [
          274.79874325335186,
          1.0000000000000036,
          0.0
        ],
        [
          274.79874325335186,
          1.0000000000000036,
          179.0
        ],
        [
          274.79874325335192,
          49.510554656110429,
          179.0
        ],
        [
          274.79874325335192,
          49.510554656110429,
          0.0
        ]
      ]
    ]
  ]
}